Introduction to SSM Analysis • circumplex
…
By interpreting these three parameters, we can understand a profile much more parsimoniously than by trying to interpret all eight subscales individually. This approach also leverages the circumplex relationship (i.e., dependency) among subscales. It is also possible to transform the amplitude and displacement parameters into estimates of distance from the x-axis and y-axis, which will be shown in the output discussed below.

2. Example data: jz2017

To illustrate the SSM functions, we will use the example dataset jz2017, which was provided by Zimmermann & Wright (2017) and reformatted for this package. This dataset includes self-report data from 1166 undergraduate students. Students completed a circumplex measure of interpersonal problems with eight subscales (PA, BC, DE, FG, HI, JK, LM, and NO) and a measure of personality disorder symptoms with ten subscales (PARPD, SCZPD, SZTPD, ASPD, BORPD, HISPD, NARPD, AVPD, DPNPD, and OCPD). More information about these variables can be accessed using the ?jz2017 command in R.

data("jz2017")
print(jz2017)
#> # A tibble: 1,166 x 19
#>    Gender    PA    BC    DE    FG    HI    JK    LM    NO PARPD SCZPD SZTPD
#>    <fct>  <dbl> <dbl> <dbl> <dbl> <dbl> <dbl> <dbl> <dbl> <int> <int> <int>
#>  1 Female  1.5   1.5   1.25  1     2     2.5   2.25  2.5      4     3     7
#>  2 Female  0     0.25  0     0.25  1.25  1.75  2.25  2.25     1     0     2
#>  3 Female  0     0     0     0     0     0     0     0        0     1     0
#>  4 Male    2     1.75  1.75  2.5   2     1.75  2     2.5      1     0     0
#>  5 Female  0.25  0.5   0.25  0     0     0     0     0        0     0     0
#>  6 Male    1.5   1.75  2.25  1.75  2     1.25  2.25  2.5      5     5     7
#>  7 Male    2     1.75  1.75  2     1.5   1.25  1.25  1.75     3     6     7
#>  8 Female  0     0.25  0.25  0.25  1     1.25  1.25  1        0     0     1
#>  9 Female  0     0     0     0     0.25  0.25  1     0        0     1     0
#> 10 Male    0.75  2     1.75  2.5   2     1.5   2     2.25     4     5     5
#> # ... with 1,156 more rows, and 7 more variables: ASPD <int>, BORPD <int>,
#> #   HISPD <int>, NARPD <int>, AVPD <int>, DPNPD <int>, OCPD <int>
…
data("iipsc")
jz2017s <- standardize(
  .data = jz2017,
  scales = c(PA, BC, DE, FG, HI, JK, LM, NO),
  angles = c(90, 135, 180, 225, 270, 315, 360, 45),
  instrument = iipsc,
  sample = 1
)
print(jz2017s)
#> # A tibble: 1,166 x 27
#>    Gender    PA    BC    DE    FG    HI    JK    LM    NO PARPD SCZPD SZTPD
#>    <fct>  <dbl> <dbl> <dbl> <dbl> <dbl> <dbl> <dbl> <dbl> <int> <int> <int>
#>  1 Female  1.5   1.5   1.25  1     2     2.5   2.25  2.5      4     3     7
#>  2 Female  0     0.25  0     0.25  1.25  1.75  2.25  2.25     1     0     2
#>  3 Female  0     0     0     0     0     0     0     0        0     1     0
#>  4 Male    2     1.75  1.75  2.5   2     1.75  2     2.5      1     0     0
#>  5 Female  0.25  0.5   0.25  0     0     0     0     0        0     0     0
#>  6 Male    1.5   1.75  2.25  1.75  2     1.25  2.25  2.5      5     5     7
#>  7 Male    2     1.75  1.75  2     1.5   1.25  1.25  1.75     3     6     7
#>  8 Female  0     0.25  0.25  0.25  1     1.25  1.25  1        0     0     1
#>  9 Female  0     0     0     0     0.25  0.25  1     0        0     1     0
#> 10 Male    0.75  2     1.75  2.5   2     1.5   2     2.25     4     5     5
#> # ... with 1,156 more rows, and 15 more variables: ASPD <int>,
#> #   BORPD <int>, HISPD <int>, NARPD <int>, AVPD <int>, DPNPD <int>,
#> #   OCPD <int>, PA_z <dbl>, BC_z <dbl>, DE_z <dbl>, FG_z <dbl>,
#> #   HI_z <dbl>, JK_z <dbl>, LM_z <dbl>, NO_z <dbl>
…
