Standardize circumplex scales using normative data — standardize • circumplex
…
    Value

    A data frame that matches .data except that the variables
included in scales have been transformed into standard scores.

    Examples

data("jz2017")
data("iipsc")
standardize(jz2017, scales = PA:NO, angles = octants(), norms = iipsc)
#> # A tibble: 1,166 x 19
#>    Gender      PA     BC     DE      FG      HI     JK     LM      NO PARPD
#>    <fct>    <dbl>  <dbl>  <dbl>   <dbl>   <dbl>  <dbl>  <dbl>   <dbl> <int>
#>  1 Female  1.12    1.03   0.409 -0.0501  0.634   1.31   0.952  1.84       4
#>  2 Female -1.15   -0.786 -1.05  -0.842  -0.186   0.428  0.952  1.53       1
#>  3 Female -1.15   -1.15  -1.05  -1.11   -1.55   -1.62  -1.78  -1.28       0
#>  4 Male    1.88    1.39   0.994  1.53    0.634   0.428  0.648  1.84       1
#>  5 Female -0.773  -0.424 -0.760 -1.11   -1.55   -1.62  -1.78  -1.28       0
#>  6 Male    1.12    1.39   1.58   0.741   0.634  -0.158  0.952  1.84       5
#>  7 Male    1.88    1.39   0.994  1.01    0.0874 -0.158 -0.261  0.906      3
#>  8 Female -1.15   -0.786 -0.760 -0.842  -0.459  -0.158 -0.261 -0.0312     0
#>  9 Female -1.15   -1.15  -1.05  -1.11   -1.28   -1.33  -0.564 -1.28       0
#> 10 Male   -0.0152  1.75   0.994  1.53    0.634   0.135  0.648  1.53       4
#> # ... with 1,156 more rows, and 9 more variables: SCZPD <int>, SZTPD <int>,
#> #   ASPD <int>, BORPD <int>, HISPD <int>, NARPD <int>, AVPD <int>, DPNPD <int>,
#> #   OCPD <int>
…
